A cheat sheet to ‘tidy’ data processing for ECOL 4000/6000
…
I’m sure you’ve guessed this by now, but we can also do the same
thing using tidyverse syntax.

bay80_richness <- zoop %>% 
  filter(bay == "80") %>%
  group_by(sample_date) %>%
  summarize(richness = n_distinct(taxa,na.rm=T))
bay80_richness

## # A tibble: 21 × 2
##    sample_date richness
##    <chr>          <int>
##  1 1/20/10            8
##  2 1/22/09            9
##  3 1/6/10            12
##  4 12/15/09          10
##  5 12/29/09          10
##  6 2/17/10           10
##  7 2/18/09           12
##  8 2/3/10            12
##  9 3/12/09           11
## 10 3/17/10           13
## # ℹ 11 more rows
…
